diff --git a/exercises/enums/enums1.rs b/exercises/enums/enums1.rs
index 25525b2..083352b 100644
--- a/exercises/enums/enums1.rs
+++ b/exercises/enums/enums1.rs
@@ -2,11 +2,14 @@
 //
 // No hints this time! ;)
 
-// I AM NOT DONE
 
 #[derive(Debug)]
 enum Message {
     // TODO: define a few types of messages as used below
+    Quit,
+    Echo,
+    Move,
+    ChangeColor
 }
 
 fn main() {
diff --git a/exercises/enums/enums2.rs b/exercises/enums/enums2.rs
index df93fe0..c5e43c4 100644
--- a/exercises/enums/enums2.rs
+++ b/exercises/enums/enums2.rs
@@ -3,11 +3,13 @@
 // Execute `rustlings hint enums2` or use the `hint` watch subcommand for a
 // hint.
 
-// I AM NOT DONE
-
 #[derive(Debug)]
 enum Message {
     // TODO: define the different variants used below
+    Move { x: i32, y: i32 },
+    Echo(String),
+    ChangeColor(i32, i32, i32),
+    Quit,
 }
 
 impl Message {
diff --git a/exercises/enums/enums3.rs b/exercises/enums/enums3.rs
index 2dcdad0..d121309 100644
--- a/exercises/enums/enums3.rs
+++ b/exercises/enums/enums3.rs
@@ -4,11 +4,13 @@
 //
 // Execute `rustlings hint enums3` or use the `hint` watch subcommand for a
 // hint.
-
-// I AM NOT DONE
-
+    
 enum Message {
     // TODO: implement the message variant types based on their usage below
+    ChangeColor(u8, u8, u8),
+    Echo(String),
+    Move(Point),
+    Quit,
 }
 
 struct Point {
@@ -45,6 +47,12 @@ impl State {
         // variants
         // Remember: When passing a tuple as a function argument, you'll need
         // extra parentheses: fn function((t, u, p, l, e))
+        match message {
+            Message::ChangeColor(r, g, b) => self.change_color((r, g, b)),
+            Message::Echo(s) => self.echo(s),
+            Message::Move(p) => self.move_position(p),
+            Message::Quit => self.quit(),
+        }
     }
 }
 
diff --git a/exercises/error_handling/errors1.rs b/exercises/error_handling/errors1.rs
index 0ba59a5..4d58fbf 100644
--- a/exercises/error_handling/errors1.rs
+++ b/exercises/error_handling/errors1.rs
@@ -9,14 +9,12 @@
 // Execute `rustlings hint errors1` or use the `hint` watch subcommand for a
 // hint.
 
-// I AM NOT DONE
-
-pub fn generate_nametag_text(name: String) -> Option<String> {
+pub fn generate_nametag_text(name: String) -> Result<String, String> {
     if name.is_empty() {
         // Empty names aren't allowed.
-        None
+        Err("`name` was empty; it must be nonempty.".into())
     } else {
-        Some(format!("Hi! My name is {}", name))
+        Ok(format!("Hi! My name is {}", name))
     }
 }
 
diff --git a/exercises/error_handling/errors2.rs b/exercises/error_handling/errors2.rs
index d4a5477..639771b 100644
--- a/exercises/error_handling/errors2.rs
+++ b/exercises/error_handling/errors2.rs
@@ -19,16 +19,20 @@
 // Execute `rustlings hint errors2` or use the `hint` watch subcommand for a
 // hint.
 
-// I AM NOT DONE
-
 use std::num::ParseIntError;
 
 pub fn total_cost(item_quantity: &str) -> Result<i32, ParseIntError> {
     let processing_fee = 1;
     let cost_per_item = 5;
+
     let qty = item_quantity.parse::<i32>();
 
-    Ok(qty * cost_per_item + processing_fee)
+    if qty.is_ok() {
+        return Ok(qty.unwrap() * cost_per_item + processing_fee);
+    }
+    else {
+        return qty;
+    }
 }
 
 #[cfg(test)]
diff --git a/exercises/error_handling/errors3.rs b/exercises/error_handling/errors3.rs
index d42d3b1..8222ec4 100644
--- a/exercises/error_handling/errors3.rs
+++ b/exercises/error_handling/errors3.rs
@@ -7,11 +7,9 @@
 // Execute `rustlings hint errors3` or use the `hint` watch subcommand for a
 // hint.
 
-// I AM NOT DONE
-
 use std::num::ParseIntError;
 
-fn main() {
+fn main() -> Result<(), ParseIntError> {
     let mut tokens = 100;
     let pretend_user_input = "8";
 
@@ -23,6 +21,7 @@ fn main() {
         tokens -= cost;
         println!("You now have {} tokens.", tokens);
     }
+    Ok(())
 }
 
 pub fn total_cost(item_quantity: &str) -> Result<i32, ParseIntError> {
diff --git a/exercises/error_handling/errors4.rs b/exercises/error_handling/errors4.rs
index d6d6fcb..ff0d193 100644
--- a/exercises/error_handling/errors4.rs
+++ b/exercises/error_handling/errors4.rs
@@ -3,8 +3,6 @@
 // Execute `rustlings hint errors4` or use the `hint` watch subcommand for a
 // hint.
 
-// I AM NOT DONE
-
 #[derive(PartialEq, Debug)]
 struct PositiveNonzeroInteger(u64);
 
@@ -17,6 +15,12 @@ enum CreationError {
 impl PositiveNonzeroInteger {
     fn new(value: i64) -> Result<PositiveNonzeroInteger, CreationError> {
         // Hmm... Why is this always returning an Ok value?
+        // Because the value is always positive
+        if value < 0 {
+            return Err(CreationError::Negative);
+        } else if value == 0 {
+            return Err(CreationError::Zero);
+        }
         Ok(PositiveNonzeroInteger(value as u64))
     }
 }
diff --git a/exercises/error_handling/errors5.rs b/exercises/error_handling/errors5.rs
index 92461a7..797a60d 100644
--- a/exercises/error_handling/errors5.rs
+++ b/exercises/error_handling/errors5.rs
@@ -22,14 +22,12 @@
 // Execute `rustlings hint errors5` or use the `hint` watch subcommand for a
 // hint.
 
-// I AM NOT DONE
-
 use std::error;
 use std::fmt;
 use std::num::ParseIntError;
 
 // TODO: update the return type of `main()` to make this compile.
-fn main() -> Result<(), Box<dyn ???>> {
+fn main() -> Result<(), Box<dyn error::Error>> {
     let pretend_user_input = "42";
     let x: i64 = pretend_user_input.parse()?;
     println!("output={:?}", PositiveNonzeroInteger::new(x)?);
diff --git a/exercises/error_handling/errors6.rs b/exercises/error_handling/errors6.rs
index aaf0948..859d29c 100644
--- a/exercises/error_handling/errors6.rs
+++ b/exercises/error_handling/errors6.rs
@@ -9,8 +9,6 @@
 // Execute `rustlings hint errors6` or use the `hint` watch subcommand for a
 // hint.
 
-// I AM NOT DONE
-
 use std::num::ParseIntError;
 
 // This is a custom error type that we will be using in `parse_pos_nonzero()`.
@@ -25,13 +23,15 @@ impl ParsePosNonzeroError {
         ParsePosNonzeroError::Creation(err)
     }
     // TODO: add another error conversion function here.
-    // fn from_parseint...
+    fn from_parseint(err: ParseIntError) -> ParsePosNonzeroError {
+        ParsePosNonzeroError::ParseInt(err)
+    }
 }
 
 fn parse_pos_nonzero(s: &str) -> Result<PositiveNonzeroInteger, ParsePosNonzeroError> {
     // TODO: change this to return an appropriate error instead of panicking
     // when `parse()` returns an error.
-    let x: i64 = s.parse().unwrap();
+    let x: i64 = s.parse().map_err(ParsePosNonzeroError::from_parseint)?;
     PositiveNonzeroInteger::new(x).map_err(ParsePosNonzeroError::from_creation)
 }
 
diff --git a/exercises/functions/functions1.rs b/exercises/functions/functions1.rs
index 40ed9a0..7ed8100 100644
--- a/exercises/functions/functions1.rs
+++ b/exercises/functions/functions1.rs
@@ -3,7 +3,9 @@
 // Execute `rustlings hint functions1` or use the `hint` watch subcommand for a
 // hint.
 
-// I AM NOT DONE
+fn call_me() {
+    println!("Hello World!");
+}
 
 fn main() {
     call_me();
diff --git a/exercises/functions/functions2.rs b/exercises/functions/functions2.rs
index 5154f34..6c236d5 100644
--- a/exercises/functions/functions2.rs
+++ b/exercises/functions/functions2.rs
@@ -3,13 +3,11 @@
 // Execute `rustlings hint functions2` or use the `hint` watch subcommand for a
 // hint.
 
-// I AM NOT DONE
-
 fn main() {
     call_me(3);
 }
 
-fn call_me(num:) {
+fn call_me(num:i32) {
     for i in 0..num {
         println!("Ring! Call number {}", i + 1);
     }
diff --git a/exercises/functions/functions3.rs b/exercises/functions/functions3.rs
index 74f44d6..c201ec0 100644
--- a/exercises/functions/functions3.rs
+++ b/exercises/functions/functions3.rs
@@ -3,10 +3,8 @@
 // Execute `rustlings hint functions3` or use the `hint` watch subcommand for a
 // hint.
 
-// I AM NOT DONE
-
 fn main() {
-    call_me();
+    call_me(0);
 }
 
 fn call_me(num: u32) {
diff --git a/exercises/functions/functions4.rs b/exercises/functions/functions4.rs
index 77c4b2a..aec6cf3 100644
--- a/exercises/functions/functions4.rs
+++ b/exercises/functions/functions4.rs
@@ -8,14 +8,12 @@
 // Execute `rustlings hint functions4` or use the `hint` watch subcommand for a
 // hint.
 
-// I AM NOT DONE
-
 fn main() {
     let original_price = 51;
     println!("Your sale price is {}", sale_price(original_price));
 }
 
-fn sale_price(price: i32) -> {
+fn sale_price(price: i32) -> i32 {
     if is_even(price) {
         price - 10
     } else {
diff --git a/exercises/functions/functions5.rs b/exercises/functions/functions5.rs
index f1b63f4..3f9578f 100644
--- a/exercises/functions/functions5.rs
+++ b/exercises/functions/functions5.rs
@@ -2,14 +2,11 @@
 //
 // Execute `rustlings hint functions5` or use the `hint` watch subcommand for a
 // hint.
-
-// I AM NOT DONE
-
 fn main() {
     let answer = square(3);
     println!("The square of 3 is {}", answer);
 }
 
 fn square(num: i32) -> i32 {
-    num * num;
+    return num * num;
 }
diff --git a/exercises/generics/generics1.rs b/exercises/generics/generics1.rs
index 35c1d2f..1f4fa4a 100644
--- a/exercises/generics/generics1.rs
+++ b/exercises/generics/generics1.rs
@@ -6,9 +6,7 @@
 // Execute `rustlings hint generics1` or use the `hint` watch subcommand for a
 // hint.
 
-// I AM NOT DONE
-
 fn main() {
-    let mut shopping_list: Vec<?> = Vec::new();
+    let mut shopping_list: Vec<&str> = Vec::new();
     shopping_list.push("milk");
 }
diff --git a/exercises/generics/generics2.rs b/exercises/generics/generics2.rs
index 074cd93..b0cc651 100644
--- a/exercises/generics/generics2.rs
+++ b/exercises/generics/generics2.rs
@@ -6,14 +6,12 @@
 // Execute `rustlings hint generics2` or use the `hint` watch subcommand for a
 // hint.
 
-// I AM NOT DONE
-
-struct Wrapper {
-    value: u32,
+struct Wrapper<T> {
+    value: T,
 }
 
-impl Wrapper {
-    pub fn new(value: u32) -> Self {
+impl<T> Wrapper<T> {
+    pub fn new(value: T) -> Self {
         Wrapper { value }
     }
 }
diff --git a/exercises/hashmaps/hashmaps1.rs b/exercises/hashmaps/hashmaps1.rs
index 80829ea..b3ab15b 100644
--- a/exercises/hashmaps/hashmaps1.rs
+++ b/exercises/hashmaps/hashmaps1.rs
@@ -11,17 +11,19 @@
 // Execute `rustlings hint hashmaps1` or use the `hint` watch subcommand for a
 // hint.
 
-// I AM NOT DONE
-
 use std::collections::HashMap;
 
 fn fruit_basket() -> HashMap<String, u32> {
-    let mut basket = // TODO: declare your hash map here.
+    let mut basket = HashMap::new(); // TODO: declare your hash map here.
 
     // Two bananas are already given for you :)
     basket.insert(String::from("banana"), 2);
 
     // TODO: Put more fruits in your basket here.
+    basket.insert(String::from("apple"), 3);
+    basket.insert(String::from("orange"), 4);
+    basket.insert(String::from("mango"), 5);
+    basket.insert(String::from("grape"), 6);
 
     basket
 }
diff --git a/exercises/hashmaps/hashmaps2.rs b/exercises/hashmaps/hashmaps2.rs
index a592569..9660b39 100644
--- a/exercises/hashmaps/hashmaps2.rs
+++ b/exercises/hashmaps/hashmaps2.rs
@@ -14,8 +14,6 @@
 // Execute `rustlings hint hashmaps2` or use the `hint` watch subcommand for a
 // hint.
 
-// I AM NOT DONE
-
 use std::collections::HashMap;
 
 #[derive(Hash, PartialEq, Eq)]
@@ -40,6 +38,10 @@ fn fruit_basket(basket: &mut HashMap<Fruit, u32>) {
         // TODO: Insert new fruits if they are not already present in the
         // basket. Note that you are not allowed to put any type of fruit that's
         // already present!
+        // if !basket.contains_key(&fruit) {
+        //     basket.insert(fruit, 1);
+        // }
+        basket.entry(fruit).or_insert(1);
     }
 }
 
diff --git a/exercises/hashmaps/hashmaps3.rs b/exercises/hashmaps/hashmaps3.rs
index 08e977c..c9e26cb 100644
--- a/exercises/hashmaps/hashmaps3.rs
+++ b/exercises/hashmaps/hashmaps3.rs
@@ -14,8 +14,6 @@
 // Execute `rustlings hint hashmaps3` or use the `hint` watch subcommand for a
 // hint.
 
-// I AM NOT DONE
-
 use std::collections::HashMap;
 
 // A structure to store the goal details of a team.
@@ -39,6 +37,12 @@ fn build_scores_table(results: String) -> HashMap<String, Team> {
         // will be the number of goals conceded from team_2, and similarly
         // goals scored by team_2 will be the number of goals conceded by
         // team_1.
+        let team_1 = scores.entry(team_1_name).or_insert(Team { goals_scored: 0, goals_conceded: 0 });
+        team_1.goals_scored += team_1_score;
+        team_1.goals_conceded += team_2_score;
+        let team_2 = scores.entry(team_2_name).or_insert(Team { goals_scored: 0, goals_conceded: 0 });
+        team_2.goals_scored += team_2_score;
+        team_2.goals_conceded += team_1_score;
     }
     scores
 }
diff --git a/exercises/if/if1.rs b/exercises/if/if1.rs
index 4734d78..95f665a 100644
--- a/exercises/if/if1.rs
+++ b/exercises/if/if1.rs
@@ -2,13 +2,16 @@
 //
 // Execute `rustlings hint if1` or use the `hint` watch subcommand for a hint.
 
-// I AM NOT DONE
-
 pub fn bigger(a: i32, b: i32) -> i32 {
     // Complete this function to return the bigger number!
     // Do not use:
     // - another function call
     // - additional variables
+    if a > b {
+        return a;
+    } else {
+        return b;
+    }
 }
 
 // Don't mind this for now :)
diff --git a/exercises/if/if2.rs b/exercises/if/if2.rs
index f512f13..52d7a26 100644
--- a/exercises/if/if2.rs
+++ b/exercises/if/if2.rs
@@ -5,13 +5,16 @@
 //
 // Execute `rustlings hint if2` or use the `hint` watch subcommand for a hint.
 
-// I AM NOT DONE
 
 pub fn foo_if_fizz(fizzish: &str) -> &str {
     if fizzish == "fizz" {
         "foo"
-    } else {
-        1
+    } 
+    else if fizzish == "fuzz" {
+        "bar"
+    }
+     else {
+        "baz"
     }
 }
 
diff --git a/exercises/if/if3.rs b/exercises/if/if3.rs
index 1696274..2ae7ff2 100644
--- a/exercises/if/if3.rs
+++ b/exercises/if/if3.rs
@@ -2,17 +2,15 @@
 //
 // Execute `rustlings hint if3` or use the `hint` watch subcommand for a hint.
 
-// I AM NOT DONE
-
 pub fn animal_habitat(animal: &str) -> &'static str {
     let identifier = if animal == "crab" {
         1
     } else if animal == "gopher" {
-        2.0
+        2
     } else if animal == "snake" {
         3
     } else {
-        "Unknown"
+        -1
     };
 
     // DO NOT CHANGE THIS STATEMENT BELOW
diff --git a/exercises/intro/intro1.rs b/exercises/intro/intro1.rs
index 37fa011..bbad884 100644
--- a/exercises/intro/intro1.rs
+++ b/exercises/intro/intro1.rs
@@ -13,8 +13,6 @@
 // Execute `rustlings hint intro1` or use the `hint` watch subcommand for a
 // hint.
 
-// I AM NOT DONE
-
 fn main() {
     println!("Hello and");
     println!(r#"       welcome to...                      "#);
@@ -37,5 +35,6 @@ fn main() {
     println!(
         "If you want to use rust-analyzer, Rust's LSP implementation, make sure your editor is set"
     );
-    println!("up, and then run `rustlings lsp` before continuing.")
+    println!("up, and then run `rustlings lsp` before continuing.");
+    println!("haha");
 }
diff --git a/exercises/intro/intro2.rs b/exercises/intro/intro2.rs
index 990b20f..8161d1d 100644
--- a/exercises/intro/intro2.rs
+++ b/exercises/intro/intro2.rs
@@ -5,8 +5,6 @@
 // Execute `rustlings hint intro2` or use the `hint` watch subcommand for a
 // hint.
 
-// I AM NOT DONE
-
 fn main() {
-    println!("Hello {}!");
+    println!("Hello {}!", "world");
 }
diff --git a/exercises/iterators/iterators1.rs b/exercises/iterators/iterators1.rs
index 31076bb..03e8d10 100644
--- a/exercises/iterators/iterators1.rs
+++ b/exercises/iterators/iterators1.rs
@@ -9,18 +9,16 @@
 // Execute `rustlings hint iterators1` or use the `hint` watch subcommand for a
 // hint.
 
-// I AM NOT DONE
-
 #[test]
 fn main() {
     let my_fav_fruits = vec!["banana", "custard apple", "avocado", "peach", "raspberry"];
 
-    let mut my_iterable_fav_fruits = ???;   // TODO: Step 1
+    let mut my_iterable_fav_fruits = my_fav_fruits.iter();   // TODO: Step 1
 
     assert_eq!(my_iterable_fav_fruits.next(), Some(&"banana"));
-    assert_eq!(my_iterable_fav_fruits.next(), ???);     // TODO: Step 2
+    assert_eq!(my_iterable_fav_fruits.next(), Some(&"custard apple"));     // TODO: Step 2
     assert_eq!(my_iterable_fav_fruits.next(), Some(&"avocado"));
-    assert_eq!(my_iterable_fav_fruits.next(), ???);     // TODO: Step 3
+    assert_eq!(my_iterable_fav_fruits.next(), Some(&"peach"));   // TODO: Step 3
     assert_eq!(my_iterable_fav_fruits.next(), Some(&"raspberry"));
-    assert_eq!(my_iterable_fav_fruits.next(), ???);     // TODO: Step 4
+    assert_eq!(my_iterable_fav_fruits.next(), None);     // TODO: Step 4
 }
diff --git a/exercises/iterators/iterators2.rs b/exercises/iterators/iterators2.rs
index dda82a0..3245221 100644
--- a/exercises/iterators/iterators2.rs
+++ b/exercises/iterators/iterators2.rs
@@ -15,7 +15,7 @@ pub fn capitalize_first(input: &str) -> String {
     let mut c = input.chars();
     match c.next() {
         None => String::new(),
-        Some(first) => ???,
+        Some(first) => first.to_uppercase().collect::<String>() + c.as_str(),
     }
 }
 
@@ -24,7 +24,11 @@ pub fn capitalize_first(input: &str) -> String {
 // Return a vector of strings.
 // ["hello", "world"] -> ["Hello", "World"]
 pub fn capitalize_words_vector(words: &[&str]) -> Vec<String> {
-    vec![]
+    let mut v = Vec::new();
+    for word in words {
+        v.push(capitalize_first(word));
+    }
+    v
 }
 
 // Step 3.
@@ -32,7 +36,8 @@ pub fn capitalize_words_vector(words: &[&str]) -> Vec<String> {
 // Return a single string.
 // ["hello", " ", "world"] -> "Hello World"
 pub fn capitalize_words_string(words: &[&str]) -> String {
-    String::new()
+    let mut ss = capitalize_words_vector(words);
+    ss.join("")
 }
 
 #[cfg(test)]
diff --git a/exercises/lifetimes/lifetimes1.rs b/exercises/lifetimes/lifetimes1.rs
index 87bde49..5fe45ae 100644
--- a/exercises/lifetimes/lifetimes1.rs
+++ b/exercises/lifetimes/lifetimes1.rs
@@ -8,9 +8,7 @@
 // Execute `rustlings hint lifetimes1` or use the `hint` watch subcommand for a
 // hint.
 
-// I AM NOT DONE
-
-fn longest(x: &str, y: &str) -> &str {
+fn longest<'a>(x: &'a str, y: &'a str) -> &'a str {
     if x.len() > y.len() {
         x
     } else {
diff --git a/exercises/lifetimes/lifetimes2.rs b/exercises/lifetimes/lifetimes2.rs
index 4f3d8c1..67fc782 100644
--- a/exercises/lifetimes/lifetimes2.rs
+++ b/exercises/lifetimes/lifetimes2.rs
@@ -6,7 +6,6 @@
 // Execute `rustlings hint lifetimes2` or use the `hint` watch subcommand for a
 // hint.
 
-// I AM NOT DONE
 
 fn longest<'a>(x: &'a str, y: &'a str) -> &'a str {
     if x.len() > y.len() {
@@ -19,8 +18,8 @@ fn longest<'a>(x: &'a str, y: &'a str) -> &'a str {
 fn main() {
     let string1 = String::from("long string is long");
     let result;
+    let string2 = String::from("xyz");  
     {
-        let string2 = String::from("xyz");
         result = longest(string1.as_str(), string2.as_str());
     }
     println!("The longest string is '{}'", result);
diff --git a/exercises/lifetimes/lifetimes3.rs b/exercises/lifetimes/lifetimes3.rs
index 9c59f9c..aede10d 100644
--- a/exercises/lifetimes/lifetimes3.rs
+++ b/exercises/lifetimes/lifetimes3.rs
@@ -5,11 +5,9 @@
 // Execute `rustlings hint lifetimes3` or use the `hint` watch subcommand for a
 // hint.
 
-// I AM NOT DONE
-
-struct Book {
-    author: &str,
-    title: &str,
+struct Book<'a> {
+    author: &'a str,
+    title: &'a str,
 }
 
 fn main() {
diff --git a/exercises/macros/macros1.rs b/exercises/macros/macros1.rs
index 678de6e..9d0edee 100644
--- a/exercises/macros/macros1.rs
+++ b/exercises/macros/macros1.rs
@@ -3,8 +3,6 @@
 // Execute `rustlings hint macros1` or use the `hint` watch subcommand for a
 // hint.
 
-// I AM NOT DONE
-
 macro_rules! my_macro {
     () => {
         println!("Check out my macro!");
@@ -12,5 +10,5 @@ macro_rules! my_macro {
 }
 
 fn main() {
-    my_macro();
+    my_macro!();
 }
diff --git a/exercises/modules/modules1.rs b/exercises/modules/modules1.rs
index 9eb5a48..a26f5c4 100644
--- a/exercises/modules/modules1.rs
+++ b/exercises/modules/modules1.rs
@@ -3,15 +3,13 @@
 // Execute `rustlings hint modules1` or use the `hint` watch subcommand for a
 // hint.
 
-// I AM NOT DONE
-
 mod sausage_factory {
     // Don't let anybody outside of this module see this!
     fn get_secret_recipe() -> String {
         String::from("Ginger")
     }
 
-    fn make_sausage() {
+    pub fn make_sausage() {
         get_secret_recipe();
         println!("sausage!");
     }
diff --git a/exercises/modules/modules2.rs b/exercises/modules/modules2.rs
index 0415454..f5bd7cc 100644
--- a/exercises/modules/modules2.rs
+++ b/exercises/modules/modules2.rs
@@ -7,12 +7,10 @@
 // Execute `rustlings hint modules2` or use the `hint` watch subcommand for a
 // hint.
 
-// I AM NOT DONE
-
 mod delicious_snacks {
     // TODO: Fix these use statements
-    use self::fruits::PEAR as ???
-    use self::veggies::CUCUMBER as ???
+    pub use self::fruits::PEAR as fruit;
+    pub use self::veggies::CUCUMBER as veggie;
 
     mod fruits {
         pub const PEAR: &'static str = "Pear";
diff --git a/exercises/modules/modules3.rs b/exercises/modules/modules3.rs
index f2bb050..d1e3ab4 100644
--- a/exercises/modules/modules3.rs
+++ b/exercises/modules/modules3.rs
@@ -8,10 +8,8 @@
 // Execute `rustlings hint modules3` or use the `hint` watch subcommand for a
 // hint.
 
-// I AM NOT DONE
-
 // TODO: Complete this use statement
-use ???
+use std::time::{SystemTime, UNIX_EPOCH};
 
 fn main() {
     match SystemTime::now().duration_since(UNIX_EPOCH) {
diff --git a/exercises/move_semantics/move_semantics1.rs b/exercises/move_semantics/move_semantics1.rs
index e063937..3b76ccc 100644
--- a/exercises/move_semantics/move_semantics1.rs
+++ b/exercises/move_semantics/move_semantics1.rs
@@ -3,8 +3,6 @@
 // Execute `rustlings hint move_semantics1` or use the `hint` watch subcommand
 // for a hint.
 
-// I AM NOT DONE
-
 #[test]
 fn main() {
     let vec0 = vec![22, 44, 66];
@@ -15,7 +13,7 @@ fn main() {
 }
 
 fn fill_vec(vec: Vec<i32>) -> Vec<i32> {
-    let vec = vec;
+    let mut vec = vec;
 
     vec.push(88);
 
diff --git a/exercises/move_semantics/move_semantics2.rs b/exercises/move_semantics/move_semantics2.rs
index baf6bcc..e3c0402 100644
--- a/exercises/move_semantics/move_semantics2.rs
+++ b/exercises/move_semantics/move_semantics2.rs
@@ -5,13 +5,11 @@
 // Execute `rustlings hint move_semantics2` or use the `hint` watch subcommand
 // for a hint.
 
-// I AM NOT DONE
-
 #[test]
 fn main() {
     let vec0 = vec![22, 44, 66];
 
-    let mut vec1 = fill_vec(vec0);
+    let mut vec1 = fill_vec(vec0.clone());
 
     assert_eq!(vec0, vec![22, 44, 66]);
     assert_eq!(vec1, vec![22, 44, 66, 88]);
diff --git a/exercises/move_semantics/move_semantics3.rs b/exercises/move_semantics/move_semantics3.rs
index 7af9e69..d473bb6 100644
--- a/exercises/move_semantics/move_semantics3.rs
+++ b/exercises/move_semantics/move_semantics3.rs
@@ -6,8 +6,6 @@
 // Execute `rustlings hint move_semantics3` or use the `hint` watch subcommand
 // for a hint.
 
-// I AM NOT DONE
-
 #[test]
 fn main() {
     let vec0 = vec![22, 44, 66];
@@ -17,7 +15,7 @@ fn main() {
     assert_eq!(vec1, vec![22, 44, 66, 88]);
 }
 
-fn fill_vec(vec: Vec<i32>) -> Vec<i32> {
+fn fill_vec(mut vec: Vec<i32>) -> Vec<i32> {
     vec.push(88);
 
     vec
diff --git a/exercises/move_semantics/move_semantics4.rs b/exercises/move_semantics/move_semantics4.rs
index 80b49db..c4b2ead 100644
--- a/exercises/move_semantics/move_semantics4.rs
+++ b/exercises/move_semantics/move_semantics4.rs
@@ -7,13 +7,9 @@
 // Execute `rustlings hint move_semantics4` or use the `hint` watch subcommand
 // for a hint.
 
-// I AM NOT DONE
-
 #[test]
 fn main() {
-    let vec0 = vec![22, 44, 66];
-
-    let mut vec1 = fill_vec(vec0);
+    let mut vec1 = fill_vec();
 
     assert_eq!(vec1, vec![22, 44, 66, 88]);
 }
@@ -21,7 +17,7 @@ fn main() {
 // `fill_vec()` no longer takes `vec: Vec<i32>` as argument - don't change this!
 fn fill_vec() -> Vec<i32> {
     // Instead, let's create and fill the Vec in here - how do you do that?
-    let mut vec = vec;
+    let mut vec = vec![22, 44, 66];
 
     vec.push(88);
 
diff --git a/exercises/move_semantics/move_semantics5.rs b/exercises/move_semantics/move_semantics5.rs
index 267bdcc..3e26f26 100644
--- a/exercises/move_semantics/move_semantics5.rs
+++ b/exercises/move_semantics/move_semantics5.rs
@@ -6,14 +6,12 @@
 // Execute `rustlings hint move_semantics5` or use the `hint` watch subcommand
 // for a hint.
 
-// I AM NOT DONE
-
 #[test]
 fn main() {
     let mut x = 100;
     let y = &mut x;
-    let z = &mut x;
     *y += 100;
+    let z = &mut x;
     *z += 1000;
     assert_eq!(x, 1200);
 }
diff --git a/exercises/move_semantics/move_semantics6.rs b/exercises/move_semantics/move_semantics6.rs
index cace4ca..f00dab1 100644
--- a/exercises/move_semantics/move_semantics6.rs
+++ b/exercises/move_semantics/move_semantics6.rs
@@ -5,24 +5,22 @@
 // Execute `rustlings hint move_semantics6` or use the `hint` watch subcommand
 // for a hint.
 
-// I AM NOT DONE
-
 fn main() {
     let data = "Rust is great!".to_string();
 
-    get_char(data);
+    get_char(&data);
 
-    string_uppercase(&data);
+    string_uppercase(data);
 }
 
 // Should not take ownership
-fn get_char(data: String) -> char {
+fn get_char(data: &String) -> char {
     data.chars().last().unwrap()
 }
 
 // Should take ownership
-fn string_uppercase(mut data: &String) {
-    data = &data.to_uppercase();
+fn string_uppercase(mut data: String) {
+    data = data.to_uppercase();
 
     println!("{}", data);
 }
diff --git a/exercises/options/options1.rs b/exercises/options/options1.rs
index e131b48..de9901f 100644
--- a/exercises/options/options1.rs
+++ b/exercises/options/options1.rs
@@ -3,8 +3,6 @@
 // Execute `rustlings hint options1` or use the `hint` watch subcommand for a
 // hint.
 
-// I AM NOT DONE
-
 // This function returns how much icecream there is left in the fridge.
 // If it's before 10PM, there's 5 pieces left. At 10PM, someone eats them
 // all, so there'll be no more left :(
@@ -13,7 +11,14 @@ fn maybe_icecream(time_of_day: u16) -> Option<u16> {
     // value of 0 The Option output should gracefully handle cases where
     // time_of_day > 23.
     // TODO: Complete the function body - remember to return an Option!
-    ???
+    if time_of_day < 22 {
+        Some(5)
+    } else if time_of_day >= 22 && time_of_day <= 24 {
+        Some(0)
+    }
+    else {
+        None
+    }
 }
 
 #[cfg(test)]
@@ -34,6 +39,6 @@ mod tests {
         // TODO: Fix this test. How do you get at the value contained in the
         // Option?
         let icecreams = maybe_icecream(12);
-        assert_eq!(icecreams, 5);
+        assert_eq!(icecreams, Some(5));
     }
 }
diff --git a/exercises/options/options2.rs b/exercises/options/options2.rs
index 4d998e7..5db3026 100644
--- a/exercises/options/options2.rs
+++ b/exercises/options/options2.rs
@@ -3,8 +3,6 @@
 // Execute `rustlings hint options2` or use the `hint` watch subcommand for a
 // hint.
 
-// I AM NOT DONE
-
 #[cfg(test)]
 mod tests {
     #[test]
@@ -13,7 +11,10 @@ mod tests {
         let optional_target = Some(target);
 
         // TODO: Make this an if let statement whose value is "Some" type
-        word = optional_target {
+        // word = optional_target {
+        //     assert_eq!(word, target);
+        // }
+        if let Some(word) = optional_target {
             assert_eq!(word, target);
         }
     }
@@ -32,7 +33,11 @@ mod tests {
         // TODO: make this a while let statement - remember that vector.pop also
         // adds another layer of Option<T>. You can stack `Option<T>`s into
         // while let and if let.
-        integer = optional_integers.pop() {
+        // integer = optional_integers.pop() {
+        //     assert_eq!(integer, cursor);
+        //     cursor -= 1;
+        // }
+        while let Some(Some(integer)) = optional_integers.pop() {
             assert_eq!(integer, cursor);
             cursor -= 1;
         }
diff --git a/exercises/options/options3.rs b/exercises/options/options3.rs
index 23c15ea..bca3cff 100644
--- a/exercises/options/options3.rs
+++ b/exercises/options/options3.rs
@@ -3,8 +3,6 @@
 // Execute `rustlings hint options3` or use the `hint` watch subcommand for a
 // hint.
 
-// I AM NOT DONE
-
 struct Point {
     x: i32,
     y: i32,
@@ -14,7 +12,7 @@ fn main() {
     let y: Option<Point> = Some(Point { x: 100, y: 200 });
 
     match y {
-        Some(p) => println!("Co-ordinates are {},{} ", p.x, p.y),
+        Some(ref p) => println!("Co-ordinates are {},{} ", p.x, p.y),
         _ => panic!("no match!"),
     }
     y; // Fix without deleting this line.
diff --git a/exercises/primitive_types/primitive_types1.rs b/exercises/primitive_types/primitive_types1.rs
index 3663340..5573c08 100644
--- a/exercises/primitive_types/primitive_types1.rs
+++ b/exercises/primitive_types/primitive_types1.rs
@@ -3,7 +3,6 @@
 // Fill in the rest of the line that has code missing! No hints, there's no
 // tricks, just get used to typing these :)
 
-// I AM NOT DONE
 
 fn main() {
     // Booleans (`bool`)
@@ -13,7 +12,7 @@ fn main() {
         println!("Good morning!");
     }
 
-    let // Finish the rest of this line like the example! Or make it be false!
+    let is_evening = false; // Finish the rest of this line like the example! Or make it be false!
     if is_evening {
         println!("Good evening!");
     }
diff --git a/exercises/primitive_types/primitive_types2.rs b/exercises/primitive_types/primitive_types2.rs
index f1616ed..49fa264 100644
--- a/exercises/primitive_types/primitive_types2.rs
+++ b/exercises/primitive_types/primitive_types2.rs
@@ -3,8 +3,6 @@
 // Fill in the rest of the line that has code missing! No hints, there's no
 // tricks, just get used to typing these :)
 
-// I AM NOT DONE
-
 fn main() {
     // Characters (`char`)
 
@@ -19,7 +17,7 @@ fn main() {
         println!("Neither alphabetic nor numeric!");
     }
 
-    let // Finish this line like the example! What's your favorite character?
+    let your_character = 'a';  // Finish this line like the example! What's your favorite character?
     // Try a letter, try a number, try a special character, try a character
     // from a different language than your own, try an emoji!
     if your_character.is_alphabetic() {
diff --git a/exercises/primitive_types/primitive_types3.rs b/exercises/primitive_types/primitive_types3.rs
index 8b0de44..5123b64 100644
--- a/exercises/primitive_types/primitive_types3.rs
+++ b/exercises/primitive_types/primitive_types3.rs
@@ -5,10 +5,10 @@
 // Execute `rustlings hint primitive_types3` or use the `hint` watch subcommand
 // for a hint.
 
-// I AM NOT DONE
 
 fn main() {
-    let a = ???
+    let a = [0; 100];
+    // let a = [0, 1, 2, 3, 4, 5, 6, 7, 8, 9];
 
     if a.len() >= 100 {
         println!("Wow, that's a big array!");
diff --git a/exercises/primitive_types/primitive_types4.rs b/exercises/primitive_types/primitive_types4.rs
index d44d877..7baf6ef 100644
--- a/exercises/primitive_types/primitive_types4.rs
+++ b/exercises/primitive_types/primitive_types4.rs
@@ -5,13 +5,13 @@
 // Execute `rustlings hint primitive_types4` or use the `hint` watch subcommand
 // for a hint.
 
-// I AM NOT DONE
+// slice and coercion for assert_eq
 
 #[test]
 fn slice_out_of_array() {
     let a = [1, 2, 3, 4, 5];
 
-    let nice_slice = ???
+    let nice_slice = &a[1..4];
 
     assert_eq!([2, 3, 4], nice_slice)
 }
diff --git a/exercises/primitive_types/primitive_types5.rs b/exercises/primitive_types/primitive_types5.rs
index f646986..7a33044 100644
--- a/exercises/primitive_types/primitive_types5.rs
+++ b/exercises/primitive_types/primitive_types5.rs
@@ -5,11 +5,9 @@
 // Execute `rustlings hint primitive_types5` or use the `hint` watch subcommand
 // for a hint.
 
-// I AM NOT DONE
-
 fn main() {
     let cat = ("Furry McFurson", 3.5);
-    let /* your pattern here */ = cat;
+    let (name, age) = cat;
 
     println!("{} is {} years old.", name, age);
 }
diff --git a/exercises/primitive_types/primitive_types6.rs b/exercises/primitive_types/primitive_types6.rs
index 07cc46c..d556d08 100644
--- a/exercises/primitive_types/primitive_types6.rs
+++ b/exercises/primitive_types/primitive_types6.rs
@@ -6,13 +6,12 @@
 // Execute `rustlings hint primitive_types6` or use the `hint` watch subcommand
 // for a hint.
 
-// I AM NOT DONE
 
 #[test]
 fn indexing_tuple() {
     let numbers = (1, 2, 3);
     // Replace below ??? with the tuple indexing syntax.
-    let second = ???;
+    let second = numbers.1;
 
     assert_eq!(2, second,
         "This is not the 2nd number in the tuple!")
diff --git a/exercises/quiz1.rs b/exercises/quiz1.rs
index 4ee5ada..cecf50d 100644
--- a/exercises/quiz1.rs
+++ b/exercises/quiz1.rs
@@ -13,10 +13,15 @@
 //
 // No hints this time ;)
 
-// I AM NOT DONE
 
 // Put your function here!
-// fn calculate_price_of_apples {
+fn calculate_price_of_apples(num: i32) -> i32 {
+    if num > 40 {
+        num
+    } else {
+        num * 2
+    }
+}
 
 // Don't modify this function!
 #[test]
diff --git a/exercises/quiz2.rs b/exercises/quiz2.rs
index 29925ca..e41c157 100644
--- a/exercises/quiz2.rs
+++ b/exercises/quiz2.rs
@@ -20,8 +20,6 @@
 //
 // No hints this time!
 
-// I AM NOT DONE
-
 pub enum Command {
     Uppercase,
     Trim,
@@ -32,11 +30,22 @@ mod my_module {
     use super::Command;
 
     // TODO: Complete the function signature!
-    pub fn transformer(input: ???) -> ??? {
+    pub fn transformer(input: Vec<(String, Command)>) -> Vec<String> {
         // TODO: Complete the output declaration!
-        let mut output: ??? = vec![];
+        let mut output: Vec<String> = vec![];
         for (string, command) in input.iter() {
             // TODO: Complete the function body. You can do it!
+            match command {
+                Command::Uppercase => output.push(string.to_uppercase()),
+                Command::Trim => output.push(string.trim().to_string()),
+                Command::Append(n) => {
+                    let mut s = string.clone();
+                    for _ in 0..*n {
+                        s.push_str("bar");
+                    }
+                    output.push(s);
+                }
+            }
         }
         output
     }
@@ -45,7 +54,7 @@ mod my_module {
 #[cfg(test)]
 mod tests {
     // TODO: What do we need to import to have `transformer` in scope?
-    use ???;
+    use super::my_module::transformer;
     use super::Command;
 
     #[test]
diff --git a/exercises/quiz3.rs b/exercises/quiz3.rs
index 3b01d31..2595eaa 100644
--- a/exercises/quiz3.rs
+++ b/exercises/quiz3.rs
@@ -16,15 +16,13 @@
 //
 // Execute `rustlings hint quiz3` or use the `hint` watch subcommand for a hint.
 
-// I AM NOT DONE
-
-pub struct ReportCard {
-    pub grade: f32,
+pub struct ReportCard<T> {
+    pub grade: T,
     pub student_name: String,
     pub student_age: u8,
 }
 
-impl ReportCard {
+impl<T: std::fmt::Display> ReportCard<T> {
     pub fn print(&self) -> String {
         format!("{} ({}) - achieved a grade of {}",
             &self.student_name, &self.student_age, &self.grade)
@@ -52,7 +50,7 @@ mod tests {
     fn generate_alphabetic_report_card() {
         // TODO: Make sure to change the grade here after you finish the exercise.
         let report_card = ReportCard {
-            grade: 2.1,
+            grade: "A+".to_string(),
             student_name: "Gary Plotter".to_string(),
             student_age: 11,
         };
diff --git a/exercises/strings/strings1.rs b/exercises/strings/strings1.rs
index f50e1fa..c321291 100644
--- a/exercises/strings/strings1.rs
+++ b/exercises/strings/strings1.rs
@@ -5,13 +5,11 @@
 // Execute `rustlings hint strings1` or use the `hint` watch subcommand for a
 // hint.
 
-// I AM NOT DONE
-
 fn main() {
     let answer = current_favorite_color();
     println!("My current favorite color is {}", answer);
 }
 
 fn current_favorite_color() -> String {
-    "blue"
+    String::from("blue")
 }
diff --git a/exercises/strings/strings2.rs b/exercises/strings/strings2.rs
index 4d95d16..ca16ea3 100644
--- a/exercises/strings/strings2.rs
+++ b/exercises/strings/strings2.rs
@@ -5,11 +5,9 @@
 // Execute `rustlings hint strings2` or use the `hint` watch subcommand for a
 // hint.
 
-// I AM NOT DONE
-
 fn main() {
     let word = String::from("green"); // Try not changing this line :)
-    if is_a_color_word(word) {
+    if is_a_color_word(&word) {
         println!("That is a color word I know!");
     } else {
         println!("That is not a color word I know.");
diff --git a/exercises/strings/strings3.rs b/exercises/strings/strings3.rs
index b29f932..e016ea8 100644
--- a/exercises/strings/strings3.rs
+++ b/exercises/strings/strings3.rs
@@ -3,21 +3,19 @@
 // Execute `rustlings hint strings3` or use the `hint` watch subcommand for a
 // hint.
 
-// I AM NOT DONE
-
 fn trim_me(input: &str) -> String {
     // TODO: Remove whitespace from both ends of a string!
-    ???
+    input.trim().to_string()
 }
 
 fn compose_me(input: &str) -> String {
     // TODO: Add " world!" to the string! There's multiple ways to do this!
-    ???
+    (input.to_string() + " world!").to_string()
 }
 
 fn replace_me(input: &str) -> String {
     // TODO: Replace "cars" in the string with "balloons"!
-    ???
+    input.replace("cars", "balloons").to_string()
 }
 
 #[cfg(test)]
diff --git a/exercises/strings/strings4.rs b/exercises/strings/strings4.rs
index e8c54ac..999ba80 100644
--- a/exercises/strings/strings4.rs
+++ b/exercises/strings/strings4.rs
@@ -7,8 +7,6 @@
 //
 // No hints this time!
 
-// I AM NOT DONE
-
 fn string_slice(arg: &str) {
     println!("{}", arg);
 }
@@ -17,14 +15,14 @@ fn string(arg: String) {
 }
 
 fn main() {
-    ???("blue");
-    ???("red".to_string());
-    ???(String::from("hi"));
-    ???("rust is fun!".to_owned());
-    ???("nice weather".into());
-    ???(format!("Interpolation {}", "Station"));
-    ???(&String::from("abc")[0..1]);
-    ???("  hello there ".trim());
-    ???("Happy Monday!".to_string().replace("Mon", "Tues"));
-    ???("mY sHiFt KeY iS sTiCkY".to_lowercase());
+    string_slice("blue");
+    string("red".to_string());
+    string(String::from("hi"));
+    string("rust is fun!".to_owned());
+    string_slice("nice weather".into());
+    string(format!("Interpolation {}", "Station"));
+    string_slice(&String::from("abc")[0..1]);
+    string_slice("  hello there ".trim());
+    string("Happy Monday!".to_string().replace("Mon", "Tues"));
+    string("mY sHiFt KeY iS sTiCkY".to_lowercase());
 }
diff --git a/exercises/structs/structs1.rs b/exercises/structs/structs1.rs
index 5fa5821..1a811ac 100644
--- a/exercises/structs/structs1.rs
+++ b/exercises/structs/structs1.rs
@@ -5,13 +5,14 @@
 // Execute `rustlings hint structs1` or use the `hint` watch subcommand for a
 // hint.
 
-// I AM NOT DONE
-
 struct ColorClassicStruct {
     // TODO: Something goes here
+    red: u8,
+    green: u8,
+    blue: u8
 }
 
-struct ColorTupleStruct(/* TODO: Something goes here */);
+struct ColorTupleStruct(u8, u8, u8/* TODO: Something goes here */);
 
 #[derive(Debug)]
 struct UnitLikeStruct;
@@ -23,7 +24,7 @@ mod tests {
     #[test]
     fn classic_c_structs() {
         // TODO: Instantiate a classic c struct!
-        // let green =
+        let green = ColorClassicStruct {red: 0, green: 255, blue: 0};
 
         assert_eq!(green.red, 0);
         assert_eq!(green.green, 255);
@@ -33,7 +34,7 @@ mod tests {
     #[test]
     fn tuple_structs() {
         // TODO: Instantiate a tuple struct!
-        // let green =
+        let green = ColorTupleStruct(0, 255, 0);
 
         assert_eq!(green.0, 0);
         assert_eq!(green.1, 255);
@@ -43,7 +44,7 @@ mod tests {
     #[test]
     fn unit_structs() {
         // TODO: Instantiate a unit-like struct!
-        // let unit_like_struct =
+        let unit_like_struct = UnitLikeStruct;
         let message = format!("{:?}s are fun!", unit_like_struct);
 
         assert_eq!(message, "UnitLikeStructs are fun!");
diff --git a/exercises/structs/structs2.rs b/exercises/structs/structs2.rs
index 328567f..7e3dd7c 100644
--- a/exercises/structs/structs2.rs
+++ b/exercises/structs/structs2.rs
@@ -5,8 +5,6 @@
 // Execute `rustlings hint structs2` or use the `hint` watch subcommand for a
 // hint.
 
-// I AM NOT DONE
-
 #[derive(Debug)]
 struct Order {
     name: String,
@@ -38,7 +36,11 @@ mod tests {
     fn your_order() {
         let order_template = create_order_template();
         // TODO: Create your own order using the update syntax and template above!
-        // let your_order =
+        let your_order = Order {
+            name: String::from("Hacker in Rust"),
+            count: 1,
+            ..order_template
+        };
         assert_eq!(your_order.name, "Hacker in Rust");
         assert_eq!(your_order.year, order_template.year);
         assert_eq!(your_order.made_by_phone, order_template.made_by_phone);
diff --git a/exercises/structs/structs3.rs b/exercises/structs/structs3.rs
index 7cda5af..fd12a0e 100644
--- a/exercises/structs/structs3.rs
+++ b/exercises/structs/structs3.rs
@@ -7,8 +7,6 @@
 // Execute `rustlings hint structs3` or use the `hint` watch subcommand for a
 // hint.
 
-// I AM NOT DONE
-
 #[derive(Debug)]
 struct Package {
     sender_country: String,
@@ -31,12 +29,14 @@ impl Package {
         }
     }
 
-    fn is_international(&self) -> ??? {
+    fn is_international(&self) -> bool {
         // Something goes here...
+        self.sender_country != self.recipient_country
     }
 
-    fn get_fees(&self, cents_per_gram: u32) -> ??? {
+    fn get_fees(&self, cents_per_gram: u32) -> u32 {
         // Something goes here...
+        self.weight_in_grams * cents_per_gram
     }
 }
 
diff --git a/exercises/tests/tests1.rs b/exercises/tests/tests1.rs
index 810277a..eab3ba7 100644
--- a/exercises/tests/tests1.rs
+++ b/exercises/tests/tests1.rs
@@ -10,12 +10,10 @@
 // Execute `rustlings hint tests1` or use the `hint` watch subcommand for a
 // hint.
 
-// I AM NOT DONE
-
 #[cfg(test)]
 mod tests {
     #[test]
     fn you_can_assert() {
-        assert!();
+        assert!(true);
     }
 }
diff --git a/exercises/tests/tests2.rs b/exercises/tests/tests2.rs
index f8024e9..7aa614f 100644
--- a/exercises/tests/tests2.rs
+++ b/exercises/tests/tests2.rs
@@ -5,13 +5,10 @@
 //
 // Execute `rustlings hint tests2` or use the `hint` watch subcommand for a
 // hint.
-
-// I AM NOT DONE
-
 #[cfg(test)]
 mod tests {
     #[test]
     fn you_can_assert_eq() {
-        assert_eq!();
+        assert_eq!(1, 1);
     }
 }
diff --git a/exercises/tests/tests3.rs b/exercises/tests/tests3.rs
index 4013e38..e188caf 100644
--- a/exercises/tests/tests3.rs
+++ b/exercises/tests/tests3.rs
@@ -7,8 +7,6 @@
 // Execute `rustlings hint tests3` or use the `hint` watch subcommand for a
 // hint.
 
-// I AM NOT DONE
-
 pub fn is_even(num: i32) -> bool {
     num % 2 == 0
 }
@@ -19,11 +17,11 @@ mod tests {
 
     #[test]
     fn is_true_when_even() {
-        assert!();
+        assert!(is_even(2));
     }
 
     #[test]
     fn is_false_when_odd() {
-        assert!();
+        assert!(!is_even(3));
     }
 }
diff --git a/exercises/tests/tests4.rs b/exercises/tests/tests4.rs
index 935d0db..989ad6a 100644
--- a/exercises/tests/tests4.rs
+++ b/exercises/tests/tests4.rs
@@ -5,8 +5,6 @@
 // Execute `rustlings hint tests4` or use the `hint` watch subcommand for a
 // hint.
 
-// I AM NOT DONE
-
 struct Rectangle {
     width: i32,
     height: i32
@@ -30,17 +28,20 @@ mod tests {
     fn correct_width_and_height() {
         // This test should check if the rectangle is the size that we pass into its constructor
         let rect = Rectangle::new(10, 20);
-        assert_eq!(???, 10); // check width
-        assert_eq!(???, 20); // check height
+        assert_eq!(rect.width, 10); // check width
+        assert_eq!(rect.height, 20); // check height
     }
 
     #[test]
+    #[should_panic]
     fn negative_width() {
         // This test should check if program panics when we try to create rectangle with negative width
         let _rect = Rectangle::new(-10, 10);
+
     }
 
     #[test]
+    #[should_panic]
     fn negative_height() {
         // This test should check if program panics when we try to create rectangle with negative height
         let _rect = Rectangle::new(10, -10);
diff --git a/exercises/traits/traits1.rs b/exercises/traits/traits1.rs
index 37dfcbf..eafb241 100644
--- a/exercises/traits/traits1.rs
+++ b/exercises/traits/traits1.rs
@@ -7,14 +7,17 @@
 // Execute `rustlings hint traits1` or use the `hint` watch subcommand for a
 // hint.
 
-// I AM NOT DONE
-
 trait AppendBar {
     fn append_bar(self) -> Self;
 }
 
 impl AppendBar for String {
     // TODO: Implement `AppendBar` for type `String`.
+    fn append_bar(self) -> Self {
+        let mut s = self;
+        s.push_str("Bar");
+        s
+    }
 }
 
 fn main() {
diff --git a/exercises/traits/traits2.rs b/exercises/traits/traits2.rs
index 3e35f8e..1f41eb9 100644
--- a/exercises/traits/traits2.rs
+++ b/exercises/traits/traits2.rs
@@ -8,14 +8,20 @@
 //
 // Execute `rustlings hint traits2` or use the `hint` watch subcommand for a hint.
 
-// I AM NOT DONE
-
 trait AppendBar {
     fn append_bar(self) -> Self;
 }
 
 // TODO: Implement trait `AppendBar` for a vector of strings.
 
+impl AppendBar for Vec<String> {
+    fn append_bar(self) -> Self {
+        let mut v = self;
+        v.push(String::from("Bar"));
+        v
+    }
+}
+
 #[cfg(test)]
 mod tests {
     use super::*;
diff --git a/exercises/traits/traits3.rs b/exercises/traits/traits3.rs
index 4e2b06b..7b75874 100644
--- a/exercises/traits/traits3.rs
+++ b/exercises/traits/traits3.rs
@@ -8,10 +8,10 @@
 // Execute `rustlings hint traits3` or use the `hint` watch subcommand for a
 // hint.
 
-// I AM NOT DONE
-
 pub trait Licensed {
-    fn licensing_info(&self) -> String;
+    fn licensing_info(&self) -> String {
+        String::from("Some information")
+    }
 }
 
 struct SomeSoftware {
diff --git a/exercises/traits/traits4.rs b/exercises/traits/traits4.rs
index 4bda3e5..4f3e19d 100644
--- a/exercises/traits/traits4.rs
+++ b/exercises/traits/traits4.rs
@@ -7,8 +7,6 @@
 // Execute `rustlings hint traits4` or use the `hint` watch subcommand for a
 // hint.
 
-// I AM NOT DONE
-
 pub trait Licensed {
     fn licensing_info(&self) -> String {
         "some information".to_string()
@@ -23,7 +21,7 @@ impl Licensed for SomeSoftware {}
 impl Licensed for OtherSoftware {}
 
 // YOU MAY ONLY CHANGE THE NEXT LINE
-fn compare_license_types(software: ??, software_two: ??) -> bool {
+fn compare_license_types(software: impl Licensed, software_two: impl Licensed) -> bool {
     software.licensing_info() == software_two.licensing_info()
 }
 
diff --git a/exercises/traits/traits5.rs b/exercises/traits/traits5.rs
index df18380..07bb206 100644
--- a/exercises/traits/traits5.rs
+++ b/exercises/traits/traits5.rs
@@ -7,8 +7,6 @@
 // Execute `rustlings hint traits5` or use the `hint` watch subcommand for a
 // hint.
 
-// I AM NOT DONE
-
 pub trait SomeTrait {
     fn some_function(&self) -> bool {
         true
@@ -30,7 +28,7 @@ impl SomeTrait for OtherStruct {}
 impl OtherTrait for OtherStruct {}
 
 // YOU MAY ONLY CHANGE THE NEXT LINE
-fn some_func(item: ??) -> bool {
+fn some_func(item: impl SomeTrait + OtherTrait) -> bool {
     item.some_function() && item.other_function()
 }
 
diff --git a/exercises/variables/variables1.rs b/exercises/variables/variables1.rs
index b3e089a..98a0cf2 100644
--- a/exercises/variables/variables1.rs
+++ b/exercises/variables/variables1.rs
@@ -5,9 +5,7 @@
 // Execute `rustlings hint variables1` or use the `hint` watch subcommand for a
 // hint.
 
-// I AM NOT DONE
-
 fn main() {
-    x = 5;
+    let x = 5;
     println!("x has the value {}", x);
 }
diff --git a/exercises/variables/variables2.rs b/exercises/variables/variables2.rs
index e1c23ed..dddd0c6 100644
--- a/exercises/variables/variables2.rs
+++ b/exercises/variables/variables2.rs
@@ -3,10 +3,9 @@
 // Execute `rustlings hint variables2` or use the `hint` watch subcommand for a
 // hint.
 
-// I AM NOT DONE
 
 fn main() {
-    let x;
+    let x:i32=0;
     if x == 10 {
         println!("x is ten!");
     } else {
diff --git a/exercises/variables/variables3.rs b/exercises/variables/variables3.rs
index 86bed41..be2adb5 100644
--- a/exercises/variables/variables3.rs
+++ b/exercises/variables/variables3.rs
@@ -3,9 +3,7 @@
 // Execute `rustlings hint variables3` or use the `hint` watch subcommand for a
 // hint.
 
-// I AM NOT DONE
-
 fn main() {
-    let x: i32;
+    let x: i32 = 0;
     println!("Number {}", x);
 }
diff --git a/exercises/variables/variables4.rs b/exercises/variables/variables4.rs
index 5394f39..c75843e 100644
--- a/exercises/variables/variables4.rs
+++ b/exercises/variables/variables4.rs
@@ -3,10 +3,8 @@
 // Execute `rustlings hint variables4` or use the `hint` watch subcommand for a
 // hint.
 
-// I AM NOT DONE
-
 fn main() {
-    let x = 3;
+    let mut x = 3;
     println!("Number {}", x);
     x = 5; // don't change this line
     println!("Number {}", x);
diff --git a/exercises/variables/variables5.rs b/exercises/variables/variables5.rs
index a29b38b..19ce9d6 100644
--- a/exercises/variables/variables5.rs
+++ b/exercises/variables/variables5.rs
@@ -3,11 +3,9 @@
 // Execute `rustlings hint variables5` or use the `hint` watch subcommand for a
 // hint.
 
-// I AM NOT DONE
-
 fn main() {
     let number = "T-H-R-E-E"; // don't change this line
     println!("Spell a Number : {}", number);
-    number = 3; // don't rename this variable
+    let number = 3; // don't rename this variable
     println!("Number plus two is : {}", number + 2);
 }
diff --git a/exercises/variables/variables6.rs b/exercises/variables/variables6.rs
index 853183b..762d8c2 100644
--- a/exercises/variables/variables6.rs
+++ b/exercises/variables/variables6.rs
@@ -3,9 +3,7 @@
 // Execute `rustlings hint variables6` or use the `hint` watch subcommand for a
 // hint.
 
-// I AM NOT DONE
-
-const NUMBER = 3;
+const NUMBER : i16 = 3;
 fn main() {
     println!("Number {}", NUMBER);
 }
diff --git a/exercises/vecs/vecs1.rs b/exercises/vecs/vecs1.rs
index 65b7a7f..c163d33 100644
--- a/exercises/vecs/vecs1.rs
+++ b/exercises/vecs/vecs1.rs
@@ -7,11 +7,10 @@
 //
 // Execute `rustlings hint vecs1` or use the `hint` watch subcommand for a hint.
 
-// I AM NOT DONE
-
 fn array_and_vec() -> ([i32; 4], Vec<i32>) {
     let a = [10, 20, 30, 40]; // a plain array
-    let v = // TODO: declare your vector here with the macro for vectors
+    // TODO: declare your vector here with the macro for vectors
+    let v = vec![10, 20, 30, 40];
 
     (a, v)
 }
diff --git a/exercises/vecs/vecs2.rs b/exercises/vecs/vecs2.rs
index e92c970..e6eb37a 100644
--- a/exercises/vecs/vecs2.rs
+++ b/exercises/vecs/vecs2.rs
@@ -7,13 +7,12 @@
 //
 // Execute `rustlings hint vecs2` or use the `hint` watch subcommand for a hint.
 
-// I AM NOT DONE
 
 fn vec_loop(mut v: Vec<i32>) -> Vec<i32> {
     for element in v.iter_mut() {
         // TODO: Fill this up so that each element in the Vec `v` is
         // multiplied by 2.
-        ???
+        *element *= 2;
     }
 
     // At this point, `v` should be equal to [4, 8, 12, 16, 20].
@@ -24,7 +23,7 @@ fn vec_map(v: &Vec<i32>) -> Vec<i32> {
     v.iter().map(|element| {
         // TODO: Do the same thing as above - but instead of mutating the
         // Vec, you can just return the new number!
-        ???
+        element * 2
     }).collect()
 }
 
